%YAML 1.1
%TAG !u! tag:unity3d.com,2011:
--- !u!1045 &1
EditorBuildSettings:
  m_ObjectHideFlags: 0
  serializedVersion: 2
  m_Scenes:
  - enabled: 1
    path: Assets/Pandora/Scenes/Outgame.unity
    guid: a375529be09a1284bb42fb2e1aad2205
  - enabled: 1
    path: Assets/Pandora/Scenes/Ingame.unity
    guid: 9fc0d4010bbf28b4594072e72b8655ab
  - enabled: 1
    path: Assets/Pandora/Scenes/Level Design.unity
    guid: 24d5fd2be5c3a35408599f51bbcd4452
  - enabled: 1
    path: Assets/Pandora/Scenes/Menu3dEnv.unity
    guid: db89faae129fe8644be80876a0a299cf
  m_configObjects:
    com.unity.input.settings: {fileID: 11400000, guid: 5c849c63a14c97543b0ac4c1155b9d91,
      type: 2}
