%YAML 1.1
%TAG !u! tag:unity3d.com,2011:
--- !u!1001 &3579424478189267748
PrefabInstance:
  m_ObjectHideFlags: 0
  serializedVersion: 2
  m_Modification:
    m_TransformParent: {fileID: 0}
    m_Modifications:
    - target: {fileID: 3839577645054054311, guid: 74ad1b02b7a6ab74b9d5748185be1734,
        type: 3}
      propertyPath: m_LocalPosition.x
      value: 0
      objectReference: {fileID: 0}
    - target: {fileID: 3839577645054054311, guid: 74ad1b02b7a6ab74b9d5748185be1734,
        type: 3}
      propertyPath: m_LocalPosition.y
      value: 0
      objectReference: {fileID: 0}
    - target: {fileID: 3839577645054054311, guid: 74ad1b02b7a6ab74b9d5748185be1734,
        type: 3}
      propertyPath: m_LocalPosition.z
      value: 0
      objectReference: {fileID: 0}
    - target: {fileID: 3839577645054054311, guid: 74ad1b02b7a6ab74b9d5748185be1734,
        type: 3}
      propertyPath: m_LocalRotation.x
      value: -0
      objectReference: {fileID: 0}
    - target: {fileID: 3839577645054054311, guid: 74ad1b02b7a6ab74b9d5748185be1734,
        type: 3}
      propertyPath: m_LocalRotation.y
      value: -0
      objectReference: {fileID: 0}
    - target: {fileID: 3839577645054054311, guid: 74ad1b02b7a6ab74b9d5748185be1734,
        type: 3}
      propertyPath: m_LocalRotation.z
      value: -0
      objectReference: {fileID: 0}
    - target: {fileID: 3839577645054054311, guid: 74ad1b02b7a6ab74b9d5748185be1734,
        type: 3}
      propertyPath: m_LocalRotation.w
      value: 1
      objectReference: {fileID: 0}
    - target: {fileID: 3839577645054054311, guid: 74ad1b02b7a6ab74b9d5748185be1734,
        type: 3}
      propertyPath: m_RootOrder
      value: 0
      objectReference: {fileID: 0}
    - target: {fileID: 3839577645054054311, guid: 74ad1b02b7a6ab74b9d5748185be1734,
        type: 3}
      propertyPath: m_LocalEulerAnglesHint.x
      value: 0
      objectReference: {fileID: 0}
    - target: {fileID: 3839577645054054311, guid: 74ad1b02b7a6ab74b9d5748185be1734,
        type: 3}
      propertyPath: m_LocalEulerAnglesHint.y
      value: 0
      objectReference: {fileID: 0}
    - target: {fileID: 3839577645054054311, guid: 74ad1b02b7a6ab74b9d5748185be1734,
        type: 3}
      propertyPath: m_LocalEulerAnglesHint.z
      value: 0
      objectReference: {fileID: 0}
    - target: {fileID: 3839577645054054311, guid: 74ad1b02b7a6ab74b9d5748185be1734,
        type: 3}
      propertyPath: m_AnchoredPosition.x
      value: 24
      objectReference: {fileID: 0}
    - target: {fileID: 3839577645054054311, guid: 74ad1b02b7a6ab74b9d5748185be1734,
        type: 3}
      propertyPath: m_AnchoredPosition.y
      value: 24
      objectReference: {fileID: 0}
    - target: {fileID: 3839577645054054311, guid: 74ad1b02b7a6ab74b9d5748185be1734,
        type: 3}
      propertyPath: m_SizeDelta.x
      value: 200
      objectReference: {fileID: 0}
    - target: {fileID: 3839577645054054311, guid: 74ad1b02b7a6ab74b9d5748185be1734,
        type: 3}
      propertyPath: m_SizeDelta.y
      value: 200
      objectReference: {fileID: 0}
    - target: {fileID: 3839577645054054311, guid: 74ad1b02b7a6ab74b9d5748185be1734,
        type: 3}
      propertyPath: m_AnchorMin.x
      value: 0
      objectReference: {fileID: 0}
    - target: {fileID: 3839577645054054311, guid: 74ad1b02b7a6ab74b9d5748185be1734,
        type: 3}
      propertyPath: m_AnchorMin.y
      value: 0
      objectReference: {fileID: 0}
    - target: {fileID: 3839577645054054311, guid: 74ad1b02b7a6ab74b9d5748185be1734,
        type: 3}
      propertyPath: m_AnchorMax.x
      value: 0
      objectReference: {fileID: 0}
    - target: {fileID: 3839577645054054311, guid: 74ad1b02b7a6ab74b9d5748185be1734,
        type: 3}
      propertyPath: m_AnchorMax.y
      value: 0
      objectReference: {fileID: 0}
    - target: {fileID: 3839577645054054311, guid: 74ad1b02b7a6ab74b9d5748185be1734,
        type: 3}
      propertyPath: m_Pivot.x
      value: 0
      objectReference: {fileID: 0}
    - target: {fileID: 3839577645054054311, guid: 74ad1b02b7a6ab74b9d5748185be1734,
        type: 3}
      propertyPath: m_Pivot.y
      value: 0
      objectReference: {fileID: 0}
    - target: {fileID: 3839577645054054312, guid: 74ad1b02b7a6ab74b9d5748185be1734,
        type: 3}
      propertyPath: m_Name
      value: HelplessPortrait
      objectReference: {fileID: 0}
    - target: {fileID: 5095673762590836319, guid: 74ad1b02b7a6ab74b9d5748185be1734,
        type: 3}
      propertyPath: _id
      value: 1
      objectReference: {fileID: 0}
    - target: {fileID: 5095673762590836319, guid: 74ad1b02b7a6ab74b9d5748185be1734,
        type: 3}
      propertyPath: _sprites.Array.data[0].second
      value: 
      objectReference: {fileID: 21300000, guid: 5c73ace581455894e9d37f2482757f39,
        type: 3}
    m_RemovedComponents: []
  m_SourcePrefab: {fileID: 100100000, guid: 74ad1b02b7a6ab74b9d5748185be1734, type: 3}
